…
``` r
tbl_df = final_df |>
  filter((series >= 5) & 
           (series <= 10) & 
           ((result == "STAR BAKER")|(result == "WINNER"))
            ) |>
  select(baker_name, series, episode, result) |>
  arrange(series, episode)

tbl = as_tibble(tbl_df)
tbl
```

    ## # A tibble: 60 × 4
    ##    baker_name        series episode result    
    ##    <chr>              <dbl>   <dbl> <chr>     
    ##  1 Nancy Birtwhistle      5       1 STAR BAKER
    ##  2 Richard Burr           5       2 STAR BAKER
    ##  3 Luis Troyano           5       3 STAR BAKER
    ##  4 Richard Burr           5       4 STAR BAKER
    ##  5 Kate Henry             5       5 STAR BAKER
    ##  6 Chetna Makan           5       6 STAR BAKER
    ##  7 Richard Burr           5       7 STAR BAKER
    ##  8 Richard Burr           5       8 STAR BAKER
    ##  9 Richard Burr           5       9 STAR BAKER
    ## 10 Nancy Birtwhistle      5      10 WINNER    
    ## # ℹ 50 more rows
…
